02 - Порівняння середніх: t-розподіл
…
Приклад

bind_cols(country1 = country$country_1, 
          mean1 = mean$mean_1, 
          country2 = country$country_2, 
          mean2 = mean$mean_2) %>% 
  mutate(diff = abs(mean1 - mean2)) %>% 
  filter(diff != 0) %>% 
  distinct() %>% 
  arrange(diff) %>% 
  slice(seq(1, nrow(.), by = 2))

# A tibble: 10,011 x 5
   country1         mean1 country2      mean2    diff
   <fct>            <dbl> <fct>         <dbl>   <dbl>
 1 Bolivia           52.5 Congo, Rep.    52.5 0.00267
 2 Eritrea           46.0 Zambia         46.0 0.00292
 3 Belgium           73.6 Israel         73.6 0.00408
 4 Costa Rica        70.2 Poland         70.2 0.00450
 5 Chad              46.8 Yemen, Rep.    46.8 0.00683
 6 Cambodia          47.9 Tanzania       47.9 0.00958
 7 Hong Kong, China  73.5 United States  73.5 0.0143 
 8 Congo, Dem. Rep.  44.5 Niger          44.6 0.0149 
 9 Nepal             49.0 Swaziland      49.0 0.0161 
10 Kenya             52.7 Zimbabwe       52.7 0.0178 
# ... with 10,001 more rows
…
