01 - Розвідувальний аналіз даних
…
Проведено симуляцію довірчих інтервалів

library(tidyverse)
sample_size <- 100
set.seed(2021)
ci_simulations <- tibble(
  m = replicate(sample_size, mean(rnorm(sample_size, mean = 100, sd = 15))),
  se = 15/sqrt(sample_size),
  lower = m - se*zcr,
  higher = m + se*zcr,
  parameter_inside = lower<100 & higher>100
)
ci_simulations

# A tibble: 100 x 5
       m    se lower higher parameter_inside
   <dbl> <dbl> <dbl>  <dbl> <lgl>           
 1  97.4   1.5  94.4   100. TRUE            
 2 100.    1.5  97.0   103. TRUE            
 3 100.    1.5  97.1   103. TRUE            
 4  98.4   1.5  95.5   101. TRUE            
 5 104.    1.5 102.    107. FALSE           
 6  97.7   1.5  94.8   101. TRUE            
 7 101.    1.5  98.4   104. TRUE            
 8 103.    1.5 100.    106. FALSE           
 9 100.    1.5  97.2   103. TRUE            
10  99.3   1.5  96.4   102. TRUE            
# ... with 90 more rows
…
