t-test
…
plot_data <- tibble(
  T_X = map_dbl(1:M, ~ {
    sample <- rnorm(sample_size, mean = 5, sd = 3)
    sqrt(sample_size) * (mean(sample) - 5) / sqrt(var(sample))
  }),
  Z_X = map_dbl(1:M, ~ {
    sample <- rnorm(sample_size, mean = 5, sd = 3)
    sqrt(sample_size) * (mean(sample) - 5) / 3
  })
) %>% 
  pivot_longer(everything(), names_to = "Statistic", values_to = "Value")

plot_data

# A tibble: 200,000 × 2
   Statistic    Value
   <chr>        <dbl>
 1 T_X        1.14   
 2 Z_X       -0.834  
 3 T_X        0.624  
 4 Z_X        0.867  
 5 T_X       -0.0568 
 6 Z_X        2.99   
 7 T_X        0.668  
 8 Z_X       -0.444  
 9 T_X        0.0945 
10 Z_X       -0.00843
# ℹ 199,990 more rows
…
You have come up with an idea for a startup where couriers collect orders for customers and deliver them to their homes. The margin on an order in your startup is X ₴, and the cost of a courier’s work is 1k ₴. The specifics of your startup are such that there is a high risk of return without payment. Given the costs, investors are willing to sponsor your infrastructure and customer acquisition if you show that you will make a profit.

From the data, you have the money brought in from each user. Sometimes a positive value, sometimes negative.

\(X_1, X_2, \dots X_N\) — a sample of the user’s profit.

\(H_0\): \(E \overline{X} \leq 0\) vs. \(H_1: E \overline{X} > 0\)

Data:

profits = read_table('data/profit_from_user.out', col_names = "profit")
profits

# A tibble: 5,000 × 1
   profit
    <dbl>
 1   -718
 2    657
 3    693
 4    391
 5   -644
 6    421
 7    265
 8   -108
 9   1956
10   -684
# ℹ 4,990 more rows
…
