Webscraping
…
Table 1: Pre-IAAF (1881–1912)

pre_iaaf <- 
  m100 %>%
  html_element("#mw-content-text > div.mw-content-ltr.mw-parser-output > table:nth-child(11)") %>% 
  html_table() %>% 
  clean_names() %>%         
  mutate(date = mdy(date))

pre_iaaf

# A tibble: 21 × 5
    time athlete               nationality    location_of_races       date      
   <dbl> <chr>                 <chr>          <chr>                   <date>    
 1  10.8 Luther Cary           United States  Paris, France           1891-07-04
 2  10.8 Cecil Lee             United Kingdom Brussels, Belgium       1892-09-25
 3  10.8 Étienne De Ré         Belgium        Brussels, Belgium       1893-08-04
 4  10.8 L. Atcherley          United Kingdom Frankfurt/Main, Germany 1895-04-13
 5  10.8 Harry Beaton          United Kingdom Rotterdam, Netherlands  1895-08-28
 6  10.8 Harald Anderson-Arbin Sweden         Helsingborg, Sweden     1896-08-09
 7  10.8 Isaac Westergren      Sweden         Gävle, Sweden           1898-09-11
 8  10.8 Isaac Westergren      Sweden         Gävle, Sweden           1899-09-10
 9  10.8 Frank Jarvis          United States  Paris, France           1900-07-14
10  10.8 Walter Tewksbury      United States  Paris, France           1900-07-14
# ℹ 11 more rows
…
ctrs_iphn <- 
  lapply(pages, iphn_scrape) %>% 
  bind_rows()

Scraping page page=1; 
Scraping page page=2; 
Scraping page page=3; 

ctrs_iphn_tbl <- ctrs_iphn %>% 
  rename(title = V1,
         price = V2)

ctrs_iphn_tbl

# A tibble: 141 × 2
   title                                                 price  
   <chr>                                                 <chr>  
 1 Apple iPhone 16 Pro Max 256GB Desert Titanium (MYWX3) 62 799₴
 2 Apple iPhone 16 Pro 128GB Desert Titanium (MYNF3)     51 499₴
 3 Apple iPhone 13 128GB Starlight (MLPG3)               22 999₴
 4 Apple iPhone 16 Plus 128GB Ultramarine (MXVX3S)       44 899₴
 5 Apple iPhone 15 128GB Black (MTP03)                   33 999₴
 6 Apple iPhone 16 128GB Black (MYE73)                   39 999₴
 7 Apple iPhone 16e 128GB Black (MD1Q4SX/A)              34 999₴
 8 Apple iPhone 15 256GB Black (MTP63)                   39 199₴
 9 Apple iPhone 16 Pro Max 256GB Black Titanium (MYWV3S) 62 799₴
10 Apple iPhone 13 128GB Midnight (MLPF3)                22 999₴
# ℹ 131 more rows
…
Find the API Tab: Locate and click the API tab.

Copy the API Endpoint: Copy the URL provided in the popup.

Optional: Paste the endpoint into your browser to view the data in JSON format. (Use the JSONView extension for better readability.)

NYC Trees: Extracting Data

nyc_trees <- 
  fromJSON("https://data.cityofnewyork.us/resource/uvpi-gqnh.json") %>%
  as_tibble()
nyc_trees

# A tibble: 1,000 × 45
   tree_id block_id created_at        tree_dbh stump_diam curb_loc status health
   <chr>   <chr>    <chr>             <chr>    <chr>      <chr>    <chr>  <chr> 
 1 180683  348711   2015-08-27T00:00… 3        0          OnCurb   Alive  Fair  
 2 200540  315986   2015-09-03T00:00… 21       0          OnCurb   Alive  Fair  
 3 204026  218365   2015-09-05T00:00… 3        0          OnCurb   Alive  Good  
 4 204337  217969   2015-09-05T00:00… 10       0          OnCurb   Alive  Good  
 5 189565  223043   2015-08-30T00:00… 21       0          OnCurb   Alive  Good  
 6 190422  106099   2015-08-30T00:00… 11       0          OnCurb   Alive  Good  
 7 190426  106099   2015-08-30T00:00… 11       0          OnCurb   Alive  Good  
 8 208649  103940   2015-09-07T00:00… 9        0          OnCurb   Alive  Good  
 9 209610  407443   2015-09-08T00:00… 6        0          OnCurb   Alive  Good  
10 192755  207508   2015-08-31T00:00… 21       0          OffsetF… Alive  Fair  
# ℹ 990 more rows
# ℹ 37 more variables: spc_latin <chr>, spc_common <chr>, steward <chr>,
#   guards <chr>, sidewalk <chr>, user_type <chr>, problems <chr>,
#   root_stone <chr>, root_grate <chr>, root_other <chr>, trunk_wire <chr>,
#   trnk_light <chr>, trnk_other <chr>, brch_light <chr>, brch_shoe <chr>,
#   brch_other <chr>, address <chr>, zipcode <chr>, zip_city <chr>,
#   cb_num <chr>, borocode <chr>, boroname <chr>, cncldist <chr>, …
…
jsonedit(fred, mode = "view")

FRED data: Extracting Data

FRED data: Extracting Data

fred_tbl <- 
  fred$observations %>% 
  bind_rows()

fred_tbl

# A tibble: 96 × 4
   realtime_start realtime_end date       value   
   <chr>          <chr>        <chr>      <chr>   
 1 2025-09-26     2025-09-26   1929-01-01 1202.659
 2 2025-09-26     2025-09-26   1930-01-01 1100.67 
 3 2025-09-26     2025-09-26   1931-01-01 1029.038
 4 2025-09-26     2025-09-26   1932-01-01 895.802 
 5 2025-09-26     2025-09-26   1933-01-01 883.847 
 6 2025-09-26     2025-09-26   1934-01-01 978.188 
 7 2025-09-26     2025-09-26   1935-01-01 1065.716
 8 2025-09-26     2025-09-26   1936-01-01 1201.443
 9 2025-09-26     2025-09-26   1937-01-01 1264.393
10 2025-09-26     2025-09-26   1938-01-01 1222.966
# ℹ 86 more rows
…
World rugby rankings: Extracting data

rankings <- 
  bind_cols(
    rugby$entries$team,
    rugby$entries %>% select(pts:previousPos)
  ) %>%
  clean_names() %>%
  select(-c(id, alt_id, annotations)) %>% ## Ці колонки не додають особливого інтересу
  select(pos, pts, everything()) %>% ## Змініть порядок решти стовпців
  as_tibble()

rankings

# A tibble: 113 × 8
     pos   pts name         abbreviation country_code metadata previous_pts
   <int> <dbl> <chr>        <chr>        <chr>        <df[,0]>        <dbl>
 1     1  91.6 South Africa RSA          ZAF                           91.6
 2     2  89.8 Ireland      IRE          IRL                           89.8
 3     3  89.1 New Zealand  NZL          NZL                           89.1
 4     4  87.8 France       FRA          FRA                           87.8
 5     5  87.6 England      ENG          ENG                           87.6
 6     6  84.4 Argentina    ARG          ARG                           84.4
 7     7  83.8 Australia    AUS          AUS                           83.8
 8     8  81.6 Scotland     SCO          SCO                           81.6
 9     9  81.2 Fiji         FIJ          FJI                           80.9
10    10  77.8 Italy        ITA          ITA                           77.8
# ℹ 103 more rows
# ℹ 1 more variable: previous_pos <int>
…
BONUS: Automating the process

rankings_history <- 
  lapply(dates, rugby_scrape) %>%
  bind_rows()
rankings_history

# A tibble: 2,224 × 9
   date         pos   pts name   abbreviation country_code metadata previous_pts
   <date>     <int> <dbl> <chr>  <chr>        <chr>        <df[,0]>        <dbl>
 1 2003-12-29     1  94.0 Engla… ENG          ENG                           94.0
 2 2003-12-29     2  90.1 New Z… NZL          NZL                           90.1
 3 2003-12-29     3  86.6 Austr… AUS          AUS                           86.6
 4 2003-12-29     4  82.7 France FRA          FRA                           82.7
 5 2003-12-29     5  81.2 South… RSA          ZAF                           81.2
 6 2003-12-29     6  80.5 Irela… IRE          IRL                           80.5
 7 2003-12-29     7  78.0 Argen… ARG          ARG                           78.0
 8 2003-12-29     8  76.9 Wales  WAL          WAL                           76.9
 9 2003-12-29     9  76.4 Scotl… SCO          SCO                           76.4
10 2003-12-29    10  73.5 Samoa  SAM          WSM                           73.5
# ℹ 2,214 more rows
# ℹ 1 more variable: previous_pos <int>
…
