Advanced imports and data manipulations
…
(?<=/d/): ensures the match comes after /d/

[a-zA-Z0-9-_]+: matches one or more characters that are either uppercase letters, lowercase letters, digits, hyphens, or underscores

Reading a Sheet

students  <- read_sheet(
  students_sheet_id,
  na = c("", "NA"),
  sheet = "r4ds"
  )
students

# A tibble: 57 × 6
   Name                 email                  Roles Groups `Last access` Status
   <chr>                <chr>                  <chr> <chr>  <chr>         <chr> 
 1 Anna Akhlamova       aakhlamova@kse.org.ua  Stud… Group… 1 hour 24 mi… Active
 2 Diana Aldoshyna      daldoshyna@kse.org.ua  Stud… Group… 1 day 10 hou… Active
 3 Iryna Androshchuk    iandroshchuk@kse.org.… Stud… Group… 1 day 3 hours Active
 4 Taras Baraniuk       tbaraniuk@kse.org.ua   Stud… Group… 2 days 4 hou… Active
 5 Nikita Bezverkhyi    nbezverkhyi@kse.org.ua Stud… Group… 2 days 21 ho… Active
 6 Andrii Boichuk       aboichuk@kse.org.ua    Stud… Group… 2 hours 37 m… Active
 7 Maryna Bondar        mbondar@kse.org.ua     Stud… Group… 2 days 7 hou… Active
 8 Liliia Chervonetska  lchervonetska@kse.org… Stud… Group… 50 mins 20 s… Active
 9 Sofiia Danilova      sdanilova@kse.org.ua   Stud… Group… 1 day 22 hou… Active
10 Marharyta Filipovych mfilipovych@kse.org.ua Stud… Group… 17 mins 19 s… Active
# ℹ 47 more rows
…
