05 - Ознаки часових рядів
…
\(\lambda\) Бокса-Кокса

Але на цьому не зупиняємось і в подальшому з витягуванням “фічей” допоможе пакет feasts (FEatures And Statistics from Time Series).

Приклад: споживання електроенергії в України

energy <- vroom("https://raw.githubusercontent.com/Aranaur/datasets/main/datasets/alt_energy_ua/2014_2021_all_system.csv") %>% 
  pivot_longer(!time, names_to = "type", values_to = "value") %>% 
  mutate(time = ymd_hms(time)) %>% 
  as_tsibble(index = time, key = type)

energy

# A tsibble: 750,541 x 3 [1h] <UTC>
# Key:       type [11]
   time                type  value
   <dttm>              <chr> <dbl>
 1 2014-01-01 00:00:00 AES   10728
 2 2014-01-01 01:00:00 AES   10606
 3 2014-01-01 02:00:00 AES   10515
 4 2014-01-01 03:00:00 AES   10475
 5 2014-01-01 04:00:00 AES   10427
 6 2014-01-01 05:00:00 AES   10473
 7 2014-01-01 06:00:00 AES   10469
 8 2014-01-01 07:00:00 AES   10493
 9 2014-01-01 08:00:00 AES   10479
10 2014-01-01 09:00:00 AES   10455
# … with 750,531 more rows
…
