06 - Базові інструменти прогнозування
…
Tidy-підготовка

gdppc <- global_economy %>%
  mutate(GDP_per_capita = GDP/Population) %>%
  select(Year, Country, GDP, Population, GDP_per_capita)
gdppc

# A tsibble: 15,150 x 5 [1Y]
# Key:       Country [263]
    Year Country             GDP Population GDP_per_capita
   <dbl> <fct>             <dbl>      <dbl>          <dbl>
 1  1960 Afghanistan  537777811.    8996351           59.8
 2  1961 Afghanistan  548888896.    9166764           59.9
 3  1962 Afghanistan  546666678.    9345868           58.5
 4  1963 Afghanistan  751111191.    9533954           78.8
 5  1964 Afghanistan  800000044.    9731361           82.2
 6  1965 Afghanistan 1006666638.    9938414          101. 
 7  1966 Afghanistan 1399999967.   10152331          138. 
 8  1967 Afghanistan 1673333418.   10372630          161. 
 9  1968 Afghanistan 1373333367.   10604346          130. 
10  1969 Afghanistan 1408888922.   10854428          130. 
# … with 15,140 more rows
…
# A mable: 1 x 4
  Seasonal_naive   Naive         Drift    Mean
         <model> <model>       <model> <model>
1       <SNAIVE> <NAIVE> <RW w/ drift>  <MEAN>

Побудова прогнозів

brick_fc <- brick_fit %>%
  forecast(h = "5 years")

# A fable: 80 x 4 [1Q]
# Key:     .model [4]
   .model         Quarter       Bricks .mean
   <chr>            <qtr>       <dist> <dbl>
 1 Seasonal_naive 2005 Q3 N(428, 2336)   428
 2 Seasonal_naive 2005 Q4 N(397, 2336)   397
 3 Seasonal_naive 2006 Q1 N(355, 2336)   355
 4 Seasonal_naive 2006 Q2 N(435, 2336)   435
 5 Seasonal_naive 2006 Q3 N(428, 4672)   428
 6 Seasonal_naive 2006 Q4 N(397, 4672)   397
 7 Seasonal_naive 2007 Q1 N(355, 4672)   355
 8 Seasonal_naive 2007 Q2 N(435, 4672)   435
 9 Seasonal_naive 2007 Q3 N(428, 7008)   428
10 Seasonal_naive 2007 Q4 N(397, 7008)   397
# … with 70 more rows
…
Ціна акцій Facebook на закриття

fit <- fb_stock %>% model(NAIVE(Close))
augment(fit)

# A tsibble: 1,258 x 7 [1]
# Key:       Symbol, .model [1]
   Symbol .model       trading_day Close .fitted .resid .innov
   <chr>  <chr>              <int> <dbl>   <dbl>  <dbl>  <dbl>
 1 FB     NAIVE(Close)           1  54.7    NA   NA     NA    
 2 FB     NAIVE(Close)           2  54.6    54.7 -0.150 -0.150
 3 FB     NAIVE(Close)           3  57.2    54.6  2.64   2.64 
 4 FB     NAIVE(Close)           4  57.9    57.2  0.720  0.720
 5 FB     NAIVE(Close)           5  58.2    57.9  0.310  0.310
 6 FB     NAIVE(Close)           6  57.2    58.2 -1.01  -1.01 
 7 FB     NAIVE(Close)           7  57.9    57.2  0.720  0.720
 8 FB     NAIVE(Close)           8  55.9    57.9 -2.03  -2.03 
 9 FB     NAIVE(Close)           9  57.7    55.9  1.83   1.83 
10 FB     NAIVE(Close)          10  57.6    57.7 -0.140 -0.140
# … with 1,248 more rows
…
де \(k\) – ціла частина \((h-1)/m\).

Зауважте, що коли \(h=1\) і \(T\) великі, усі вони дають однакову приблизну дисперсію прогнозу: \(\hat{\sigma}^2\).

Довірчі інтервали

Довірчий інтервал прогнозу дає область, в межах якої ми очікуємо, що \(y_{T+h}\) буде лежати з заданою ймовірністю.

Якщо припустити, що помилки прогнозу розподіляються нормально, тоді 95% ДІ становить: \[\hat{y}_{T+h|T} \pm 1.96 \hat\sigma_h\] де \(\hat\sigma_h\) - це стандартне відхилення \(h\)-кроків розподілу.

Довірчі інтервали

brick_fc %>% hilo(level = 95)

# A tsibble: 80 x 5 [1Q]
# Key:       .model [4]
   .model         Quarter       Bricks .mean                  `95%`
   <chr>            <qtr>       <dist> <dbl>                 <hilo>
 1 Seasonal_naive 2005 Q3 N(428, 2336)   428 [333.2737, 522.7263]95
 2 Seasonal_naive 2005 Q4 N(397, 2336)   397 [302.2737, 491.7263]95
 3 Seasonal_naive 2006 Q1 N(355, 2336)   355 [260.2737, 449.7263]95
 4 Seasonal_naive 2006 Q2 N(435, 2336)   435 [340.2737, 529.7263]95
 5 Seasonal_naive 2006 Q3 N(428, 4672)   428 [294.0368, 561.9632]95
 6 Seasonal_naive 2006 Q4 N(397, 4672)   397 [263.0368, 530.9632]95
 7 Seasonal_naive 2007 Q1 N(355, 4672)   355 [221.0368, 488.9632]95
 8 Seasonal_naive 2007 Q2 N(435, 4672)   435 [301.0368, 568.9632]95
 9 Seasonal_naive 2007 Q3 N(428, 7008)   428 [263.9292, 592.0708]95
10 Seasonal_naive 2007 Q4 N(397, 7008)   397 [232.9292, 561.0708]95
# … with 70 more rows
…
# A mable: 1 x 1
  `RW(log(eggs) ~ drift())`
                    <model>
1             <RW w/ drift>

Прогнозування з перетвореннями

fc <- fit %>%
  forecast(h = 50)
fc

# A fable: 50 x 4 [1Y]
# Key:     .model [1]
   .model                   year             eggs .mean
   <chr>                   <dbl>           <dist> <dbl>
 1 RW(log(eggs) ~ drift())  1994 t(N(4.1, 0.018))  61.8
 2 RW(log(eggs) ~ drift())  1995 t(N(4.1, 0.036))  61.4
 3 RW(log(eggs) ~ drift())  1996 t(N(4.1, 0.055))  61.0
 4 RW(log(eggs) ~ drift())  1997 t(N(4.1, 0.074))  60.6
 5 RW(log(eggs) ~ drift())  1998 t(N(4.1, 0.093))  60.2
 6 RW(log(eggs) ~ drift())  1999    t(N(4, 0.11))  59.8
 7 RW(log(eggs) ~ drift())  2000    t(N(4, 0.13))  59.4
 8 RW(log(eggs) ~ drift())  2001    t(N(4, 0.15))  59.0
 9 RW(log(eggs) ~ drift())  2002    t(N(4, 0.18))  58.6
10 RW(log(eggs) ~ drift())  2003     t(N(4, 0.2))  58.3
# … with 40 more rows
…
Прогнозуємо \(\hat{S}_t\) за допомогою SNAIVE.

Прогнозуємо \(\hat{A}_t\) за допомогою несезонного методу часових рядів.

Об’єдуємо прогнози \(\hat{S}_t\) і \(\hat{A}_t\), щоб отримати прогнози залежної змінної.

Зайнятість у розрібній торгівлі США

us_retail_employment <- us_employment %>%
  filter(year(Month) >= 1990, Title == "Retail Trade") %>%
  select(-Series_ID)
us_retail_employment

# A tsibble: 357 x 3 [1M]
      Month Title        Employed
      <mth> <chr>           <dbl>
 1 1990 янв Retail Trade   13256.
 2 1990 фев Retail Trade   12966.
 3 1990 мар Retail Trade   12938.
 4 1990 апр Retail Trade   13012.
 5 1990 май Retail Trade   13108.
 6 1990 июн Retail Trade   13183.
 7 1990 июл Retail Trade   13170.
 8 1990 авг Retail Trade   13160.
 9 1990 сен Retail Trade   13113.
10 1990 окт Retail Trade   13185.
# … with 347 more rows

Зайнятість у розрібній торгівлі США

dcmp <- us_retail_employment %>%
  model(STL(Employed)) %>%
  components() %>% select(-.model)
dcmp

# A tsibble: 357 x 6 [1M]
      Month Employed  trend season_year remainder season_adjust
      <mth>    <dbl>  <dbl>       <dbl>     <dbl>         <dbl>
 1 1990 янв   13256. 13288.      -33.0      0.836        13289.
 2 1990 фев   12966. 13269.     -258.     -44.6          13224.
 3 1990 мар   12938. 13250.     -290.     -22.1          13228.
 4 1990 апр   13012. 13231.     -220.       1.05         13232.
 5 1990 май   13108. 13211.     -114.      11.3          13223.
 6 1990 июн   13183. 13192.      -24.3     15.5          13207.
 7 1990 июл   13170. 13172.      -23.2     21.6          13193.
 8 1990 авг   13160. 13151.       -9.52    17.8          13169.
 9 1990 сен   13113. 13131.      -39.5     22.0          13153.
10 1990 окт   13185. 13110.       61.6     13.2          13124.
# … with 347 more rows
…
slide_tsibble(),

tile_tsibble().

Для CV часових рядів найчастіше використовуються розтягнення

Крос-валідація у часових рядах

Розтягення з мінімальною довжиною 3, зростаючи на 1 кожен крок.

fb_stretch <- fb_stock %>%
  stretch_tsibble(.init = 3, .step = 1) %>%
  filter(.id != max(.id))

# A tsibble: 790,650 x 4 [1]
# Key:       .id [1,255]
  Date       Close trading_day   .id
  <date>     <dbl>       <int> <int>
1 2014-01-02  54.7           1     1
2 2014-01-03  54.6           2     1
3 2014-01-06  57.2           3     1
4 2014-01-02  54.7           1     2
5 2014-01-03  54.6           2     2
6 2014-01-06  57.2           3     2
7 2014-01-07  57.9           4     2
# … with 790,643 more rows

Крос-валідація у часових рядах

Побудова моделі RW w/ drift для кожного вікна:

fit_cv <- fb_stretch %>%
  model(RW(Close ~ drift()))

# A mable: 1,255 x 3
# Key:     .id, Symbol [1,255]
    .id Symbol `RW(Close ~ drift())`
  <int> <chr>                <model>
1     1 FB             <RW w/ drift>
2     2 FB             <RW w/ drift>
3     3 FB             <RW w/ drift>
4     4 FB             <RW w/ drift>
# … with 1,251 more rows

Крос-валідація у часових рядах

Побудова прогнозів на один крок вперед по всім моделям

fc_cv <- fit_cv %>%
  forecast(h=1)

# A fable: 1,255 x 5 [1]
# Key:     .id, Symbol [1,255]
    .id Symbol trading_day      Close .mean
  <int> <chr>        <dbl>     <dist> <dbl>
1     1 FB               4 N(58, 5.8)  58.4
2     2 FB               5 N(59, 2.7)  59.0
3     3 FB               6 N(59, 1.9)  59.1
4     4 FB               7 N(58, 2.2)  57.7
# … with 1,251 more rows
…
