07 - ЕКСПОНЕНЦІАЛЬНЕ ЗГЛАДЖУВАННЯ
…
Приклад: Експорт Алжиру

components(fit) %>%
  left_join(fitted(fit), by = c("Country", ".model", "Year"))

# A dable: 59 x 7 [1Y]
# Key:     Country, .model [1]
# :        Exports = lag(level, 1) + remainder
   Country .model  Year Exports level remainder .fitted
   <fct>   <chr>  <dbl>   <dbl> <dbl>     <dbl>   <dbl>
 1 Algeria ANN     1959    NA    39.5    NA        NA  
 2 Algeria ANN     1960    39.0  39.1    -0.496    39.5
 3 Algeria ANN     1961    46.2  45.1     7.12     39.1
 4 Algeria ANN     1962    19.8  23.8   -25.3      45.1
 5 Algeria ANN     1963    24.7  24.6     0.841    23.8
 6 Algeria ANN     1964    25.1  25.0     0.534    24.6
 7 Algeria ANN     1965    22.6  23.0    -2.39     25.0
 8 Algeria ANN     1966    26.0  25.5     3.00     23.0
 9 Algeria ANN     1967    23.4  23.8    -2.07     25.5
10 Algeria ANN     1968    23.1  23.2    -0.630    23.8
# … with 49 more rows
…
  Initial states:
     l[0]      b[0]
 10.05414 0.2224818

  sigma^2:  0.0041

      AIC      AICc       BIC 
-76.98569 -75.83184 -66.68347 

Приклад: населення Австралії

components(fit) %>%
  left_join(fitted(fit), by = c("Country", ".model", "Year"))

# A dable: 59 x 8 [1Y]
# Key:     Country, .model [1]
# :        Pop = lag(level, 1) + lag(slope, 1) + remainder
   Country   .model  Year   Pop level slope remainder .fitted
   <fct>     <chr>  <dbl> <dbl> <dbl> <dbl>     <dbl>   <dbl>
 1 Australia AAN     1959  NA    10.1 0.222 NA           NA  
 2 Australia AAN     1960  10.3  10.3 0.222 -0.000145    10.3
 3 Australia AAN     1961  10.5  10.5 0.217 -0.0159      10.5
 4 Australia AAN     1962  10.7  10.7 0.231  0.0418      10.7
 5 Australia AAN     1963  11.0  11.0 0.223 -0.0229      11.0
 6 Australia AAN     1964  11.2  11.2 0.221 -0.00641     11.2
 7 Australia AAN     1965  11.4  11.4 0.221 -0.000314    11.4
 8 Australia AAN     1966  11.7  11.7 0.235  0.0418      11.6
 9 Australia AAN     1967  11.8  11.8 0.206 -0.0869      11.9
10 Australia AAN     1968  12.0  12.0 0.208  0.00350     12.0
# … with 49 more rows
…
Компоненти

components(fit)

# A dable: 168 x 7 [1Q]
# Key:     .model [2]
# :        Trips = lag(level, 1) + lag(slope, 1) + lag(season, 4) + remainder
   .model   Quarter  Trips level slope season remainder
   <chr>      <qtr>  <dbl> <dbl> <dbl>  <dbl>     <dbl>
 1 additive 1997 Q1    NA    NA   NA    1512.      NA  
 2 additive 1997 Q2    NA    NA   NA    -290.      NA  
 3 additive 1997 Q3    NA    NA   NA    -684.      NA  
 4 additive 1997 Q4    NA  9899. -37.4  -538.      NA  
 5 additive 1998 Q1 11806. 9964. -24.5  1512.     433. 
 6 additive 1998 Q2  9276. 9851. -35.6  -290.    -374. 
 7 additive 1998 Q3  8642. 9700. -50.2  -684.    -489. 
 8 additive 1998 Q4  9300. 9694. -44.6  -538.     188. 
 9 additive 1999 Q1 11172. 9652. -44.3  1512.      10.7
10 additive 1999 Q2  9608. 9676. -35.6  -290.     290. 
# … with 158 more rows
…
Будується прогноз, використовуючи найкращий метод.

Обчислюються довірчі інтервали.

Метод дуже добре показав себе на змаганнях М3.

Приклад: населення країн світу

fit <- global_economy %>%
  mutate(Pop = Population / 1e6) %>%
  model(ets = ETS(Pop))

fit

# A mable: 263 x 2
# Key:     Country [263]
   Country                      ets
   <fct>                    <model>
 1 Afghanistan         <ETS(A,A,N)>
 2 Albania             <ETS(M,A,N)>
 3 Algeria             <ETS(M,A,N)>
 4 American Samoa      <ETS(M,A,N)>
 5 Andorra             <ETS(M,A,N)>
 6 Angola              <ETS(M,A,N)>
 7 Antigua and Barbuda <ETS(M,A,N)>
 8 Arab World          <ETS(M,A,N)>
 9 Argentina           <ETS(A,A,N)>
10 Armenia             <ETS(M,A,N)>
# … with 253 more rows

Приклад: населення країн світу

fit %>%
  forecast(h = 5)

# A fable: 1,315 x 5 [1Y]
# Key:     Country, .model [263]
   Country     .model  Year             Pop .mean
   <fct>       <chr>  <dbl>          <dist> <dbl>
 1 Afghanistan ets     2018    N(36, 0.012) 36.4 
 2 Afghanistan ets     2019    N(37, 0.059) 37.3 
 3 Afghanistan ets     2020     N(38, 0.16) 38.2 
 4 Afghanistan ets     2021     N(39, 0.35) 39.0 
 5 Afghanistan ets     2022     N(40, 0.64) 39.9 
 6 Albania     ets     2018 N(2.9, 0.00012)  2.87
 7 Albania     ets     2019   N(2.9, 6e-04)  2.87
 8 Albania     ets     2020  N(2.9, 0.0017)  2.87
 9 Albania     ets     2021  N(2.9, 0.0036)  2.86
10 Albania     ets     2022  N(2.9, 0.0066)  2.86
# … with 1,305 more rows

Приклад: електроенергія України

energy <- vroom("https://git.io/JDYAX") %>%
  pivot_longer(!time, names_to = "type", values_to = "value") %>%
   mutate(time = ymd_hms(time)) %>%
   as_tsibble(index = time, key = type)

energy

# A tsibble: 750,541 x 3 [1h] <UTC>
# Key:       type [11]
   time                type  value
   <dttm>              <chr> <dbl>
 1 2014-01-01 00:00:00 AES   10728
 2 2014-01-01 01:00:00 AES   10606
 3 2014-01-01 02:00:00 AES   10515
 4 2014-01-01 03:00:00 AES   10475
 5 2014-01-01 04:00:00 AES   10427
 6 2014-01-01 05:00:00 AES   10473
 7 2014-01-01 06:00:00 AES   10469
 8 2014-01-01 07:00:00 AES   10493
 9 2014-01-01 08:00:00 AES   10479
10 2014-01-01 09:00:00 AES   10455
# … with 750,531 more rows
…
  sigma^2:  8130.499

    AIC    AICc     BIC 
1373796 1373796 1374070 

Приклад: електроенергія України

energy_fit %>%
  filter(type == "VDE") %>%
  components(energy_fit)

# A dable: 68,255 x 8 [1h] <UTC>
# Key:     type, .model [1]
# :        value = lag(level, 1) + 0.975176649672342 * lag(slope, 1) +
#   lag(season, 24) + remainder
   type  .model time                value level slope season remainder
   <chr> <chr>  <dttm>              <dbl> <dbl> <dbl>  <dbl>     <dbl>
 1 VDE   ets    2013-12-31 00:00:00    NA    NA    NA -207.         NA
 2 VDE   ets    2013-12-31 01:00:00    NA    NA    NA -207.         NA
 3 VDE   ets    2013-12-31 02:00:00    NA    NA    NA -207.         NA
 4 VDE   ets    2013-12-31 03:00:00    NA    NA    NA -208.         NA
 5 VDE   ets    2013-12-31 04:00:00    NA    NA    NA -208.         NA
 6 VDE   ets    2013-12-31 05:00:00    NA    NA    NA -201.         NA
 7 VDE   ets    2013-12-31 06:00:00    NA    NA    NA -180.         NA
 8 VDE   ets    2013-12-31 07:00:00    NA    NA    NA -102.         NA
 9 VDE   ets    2013-12-31 08:00:00    NA    NA    NA   46.9        NA
10 VDE   ets    2013-12-31 09:00:00    NA    NA    NA  230.         NA
# … with 68,245 more rows
…
Приклад: електроенергія України

energy_fit %>% forecast()

# A fable: 528 x 5 [1h] <UTC>
# Key:     type, .model [11]
   type  .model time                         value .mean
   <chr> <chr>  <dttm>                      <dist> <dbl>
 1 AES   ets    2021-10-13 23:00:00  N(9951, 2205) 9951.
 2 AES   ets    2021-10-14 00:00:00  N(9951, 4687) 9951.
 3 AES   ets    2021-10-14 01:00:00  N(9951, 7403) 9951.
 4 AES   ets    2021-10-14 02:00:00 N(9951, 10312) 9951.
 5 AES   ets    2021-10-14 03:00:00 N(9951, 13382) 9951.
 6 AES   ets    2021-10-14 04:00:00 N(9951, 16584) 9951.
 7 AES   ets    2021-10-14 05:00:00 N(9951, 19892) 9951.
 8 AES   ets    2021-10-14 06:00:00 N(9951, 23287) 9951.
 9 AES   ets    2021-10-14 07:00:00 N(9951, 26753) 9951.
10 AES   ets    2021-10-14 08:00:00 N(9951, 30276) 9951.
# … with 518 more rows
…
Приклад: електроенергія України

.code70[

tes_fit %>%
  augment()

# A tsibble: 68,231 x 7 [1h] <UTC>
# Key:       type, .model [1]
   type  .model time                value .fitted .resid  .innov
   <chr> <chr>  <dttm>              <dbl>   <dbl>  <dbl>   <dbl>
 1 TES   ets    2014-01-01 00:00:00  6044   5915.  129.   0.0218
 2 TES   ets    2014-01-01 01:00:00  6038   5591.  447.   0.0799
 3 TES   ets    2014-01-01 02:00:00  5865   6101. -236.  -0.0387
 4 TES   ets    2014-01-01 03:00:00  5524   5385.  139.   0.0257
 5 TES   ets    2014-01-01 04:00:00  5506   5610. -104.  -0.0186
 6 TES   ets    2014-01-01 05:00:00  5346   6291. -945.  -0.150 
 7 TES   ets    2014-01-01 06:00:00  5343   6290. -947.  -0.151 
 8 TES   ets    2014-01-01 07:00:00  5324   5772. -448.  -0.0776
 9 TES   ets    2014-01-01 08:00:00  5366   5183.  183.   0.0354
10 TES   ets    2014-01-01 09:00:00  5431   5519.  -88.0 -0.0159
# … with 68,221 more rows
…
